PM Modeling
…
grid_random(
  trees(),
  tree_depth(),
  min_n(),
  loss_reduction(),
  sample_size = sample_prop(),
  #finalize(mtry(), baked_trained_pm_init),
  learn_rate(),
  stop_iter(),
  size = grid_nsim) -> xgb_grid_init

xgb_grid_init

# A tibble: 200 × 7
   trees tree_depth min_n loss_reduction sample_size learn_rate stop_iter
   <int>      <int> <int>          <dbl>       <dbl>      <dbl>     <int>
 1  1497          1     2        6.92e-8       0.727   1.27e- 2        12
 2  1221         15     2        1.02e+1       0.847   5.48e- 3         9
 3  1071         12    13        8.86e-9       0.849   2.81e- 2        16
 4  1848         12    38        3.45e-5       0.499   2.11e- 4         9
 5   309          8    19        3.64e-4       0.887   2.80e- 4        13
 6   330          8    23        1.16e+1       0.946   3.65e- 6         7
 7   486         11    29        3.31e-1       0.760   3.89e- 5        17
 8   735         12     4        1.36e-6       0.993   4.49e-10        14
 9   226         12    23        6.35e-4       0.633   5.75e- 2         5
10    68          9    34        1.79e+1       0.392   6.27e- 8        18
# ℹ 190 more rows
…
stopcl(cons)

Code
xgb_bayes_res_init

# Tuning results
# 5-fold cross-validation repeated 2 times 
# A tibble: 70 × 7
   splits           id      id2   .metrics .notes           .predictions .iter
   <list>           <chr>   <chr> <list>   <list>           <list>       <int>
 1 <split [363/91]> Repeat1 Fold1 <tibble> <tibble [1 × 3]> <tibble>         0
 2 <split [363/91]> Repeat1 Fold2 <tibble> <tibble [1 × 3]> <tibble>         0
 3 <split [363/91]> Repeat1 Fold3 <tibble> <tibble [1 × 3]> <tibble>         0
 4 <split [363/91]> Repeat1 Fold4 <tibble> <tibble [1 × 3]> <tibble>         0
 5 <split [364/90]> Repeat1 Fold5 <tibble> <tibble [1 × 3]> <tibble>         0
 6 <split [363/91]> Repeat2 Fold1 <tibble> <tibble [1 × 3]> <tibble>         0
 7 <split [363/91]> Repeat2 Fold2 <tibble> <tibble [1 × 3]> <tibble>         0
 8 <split [363/91]> Repeat2 Fold3 <tibble> <tibble [1 × 3]> <tibble>         0
 9 <split [363/91]> Repeat2 Fold4 <tibble> <tibble [1 × 3]> <tibble>         0
10 <split [364/90]> Repeat2 Fold5 <tibble> <tibble [1 × 3]> <tibble>         0
# ℹ 60 more rows
…
